ALU/Practical/simulation/qsim/Practical3.msim.vcd
$comment
	File created using the following command:
		vcd file Practical3.msim.vcd -direction
$end
$date
	Tue Mar 12 00:40:47 2024
$end
$version
	ModelSim Version 10.1d
$end
$timescale
	1ps
$end
$scope module Practical3_vlg_vec_tst $end
$var reg 8 ! A [7:0] $end
$var reg 8 " B [7:0] $end
$var reg 1 # CLOCK $end
$var reg 1 $ ENABLE $end
$var reg 4 % OPCODE [3:0] $end
$var wire 1 & DECODE [15] $end
$var wire 1 ' DECODE [14] $end
$var wire 1 ( DECODE [13] $end
$var wire 1 ) DECODE [12] $end
$var wire 1 * DECODE [11] $end
$var wire 1 + DECODE [10] $end
$var wire 1 , DECODE [9] $end
$var wire 1 - DECODE [8] $end
$var wire 1 . DECODE [7] $end
$var wire 1 / DECODE [6] $end
$var wire 1 0 DECODE [5] $end
$var wire 1 1 DECODE [4] $end
$var wire 1 2 DECODE [3] $end
$var wire 1 3 DECODE [2] $end
$var wire 1 4 DECODE [1] $end
$var wire 1 5 DECODE [0] $end
$var wire 1 6 OUT [7] $end
$var wire 1 7 OUT [6] $end
$var wire 1 8 OUT [5] $end
$var wire 1 9 OUT [4] $end
$var wire 1 : OUT [3] $end
$var wire 1 ; OUT [2] $end
$var wire 1 < OUT [1] $end
$var wire 1 = OUT [0] $end
$var wire 1 > READY $end
$var wire 1 ? ZERO $end
$var wire 1 @ sampler $end
$scope module i1 $end
$var wire 1 A gnd $end
$var wire 1 B vcc $end
$var wire 1 C unknown $end
$var tri1 1 D devclrn $end
$var tri1 1 E devpor $end
$var tri1 1 F devoe $end
$var wire 1 G CLOCK~combout $end
$var wire 1 H ENABLE~combout $end
$var wire 1 I inst4|inst|LPM_COUNTER_component|auto_generated|counter_cella0~COUT $end
$var wire 1 J inst4|inst|LPM_COUNTER_component|auto_generated|counter_cella0~COUTCOUT1_3 $end
$var wire 1 K inst4|inst|LPM_COUNTER_component|auto_generated|counter_cella1~COUT $end
$var wire 1 L inst4|inst|LPM_COUNTER_component|auto_generated|counter_cella1~COUTCOUT1_3 $end
$var wire 1 M inst4|inst|LPM_COUNTER_component|auto_generated|counter_cella2~COUT $end
$var wire 1 N inst4|inst|LPM_COUNTER_component|auto_generated|counter_cella2~COUTCOUT1_3 $end
$var wire 1 O inst4|inst30|LPM_COMPARE_component|auto_generated|aneb_result_wire[0]~0_combout $end
$var wire 1 P inst7|LPM_DECODE_component|auto_generated|w_anode69w[3]~0_combout $end
$var wire 1 Q inst18|LPM_COMPARE_component|auto_generated|data_wire[1]~6_combout $end
$var wire 1 R inst18|LPM_COMPARE_component|auto_generated|data_wire[1]~5_combout $end
$var wire 1 S inst18|LPM_COMPARE_component|auto_generated|data_wire[2]~4_combout $end
$var wire 1 T inst18|LPM_COMPARE_component|auto_generated|data_wire[0]~7_combout $end
$var wire 1 U inst18|LPM_COMPARE_component|auto_generated|aneb_result_wire[0]~1_combout $end
$var wire 1 V inst18|LPM_COMPARE_component|auto_generated|data_wire[3]~2_combout $end
$var wire 1 W inst18|LPM_COMPARE_component|auto_generated|data_wire[2]~3_combout $end
$var wire 1 X inst18|LPM_COMPARE_component|auto_generated|data_wire[3]~1_combout $end
$var wire 1 Y inst18|LPM_COMPARE_component|auto_generated|data_wire[0]~0_combout $end
$var wire 1 Z inst18|LPM_COMPARE_component|auto_generated|aneb_result_wire[0]~0_combout $end
$var wire 1 [ inst5|LPM_MUX_component|auto_generated|dffe3~regout $end
$var wire 1 \ inst19|LPM_MUX_component|auto_generated|dffe30~2_combout $end
$var wire 1 ] inst3|inst10|inst1|inst5~0_combout $end
$var wire 1 ^ inst3|inst9|inst1|inst5~0_combout $end
$var wire 1 _ inst3|inst|inst1|inst5~0_combout $end
$var wire 1 ` inst3|inst|inst2|inst5~0_combout $end
$var wire 1 a inst3|inst|inst2|inst5~1_combout $end
$var wire 1 b inst3|inst|inst3|inst5~0_combout $end
$var wire 1 c inst19|LPM_MUX_component|auto_generated|dffe30~0_combout $end
$var wire 1 d inst19|LPM_MUX_component|auto_generated|dffe30~1_combout $end
$var wire 1 e inst19|LPM_MUX_component|auto_generated|dffe30~regout $end
$var wire 1 f inst10|inst|inst9|inst1|inst5~0_combout $end
$var wire 1 g inst10|inst|inst9|inst3|inst|1~combout $end
$var wire 1 h inst10|inst|inst10|inst1|inst5~0_combout $end
$var wire 1 i inst10|inst|inst10|inst3|inst|1~combout $end
$var wire 1 j inst4|inst9|LPM_COMPARE_component|auto_generated|aneb_result_wire[0]~0_combout $end
$var wire 1 k inst4|inst6|inst|inst1|inst~regout $end
$var wire 1 l inst4|inst6|inst|inst1|inst1~regout $end
$var wire 1 m inst4|inst6|inst|inst1|inst2~regout $end
$var wire 1 n inst4|inst6|inst|inst1|inst3~regout $end
$var wire 1 o inst4|inst6|inst|inst1|inst4~regout $end
$var wire 1 p inst4|inst6|inst|inst1|inst5~regout $end
$var wire 1 q inst4|inst6|inst|inst1|inst6~regout $end
$var wire 1 r inst4|inst6|inst|inst1|inst7~regout $end
$var wire 1 s inst4|inst33|inst7|LPM_MUX_component|auto_generated|result_node[9]~0_combout $end
$var wire 1 t inst4|inst33|inst2|LPM_ADD_SUB_component|stratix_adder|add_sub_cell[0]~COUT $end
$var wire 1 u inst4|inst33|inst2|LPM_ADD_SUB_component|stratix_adder|add_sub_cell[0]~COUTCOUT1_8 $end
$var wire 1 v inst4|inst33|inst2|LPM_ADD_SUB_component|stratix_adder|add_sub_cell[1]~COUT $end
$var wire 1 w inst4|inst33|inst2|LPM_ADD_SUB_component|stratix_adder|add_sub_cell[1]~COUTCOUT1_10 $end
$var wire 1 x inst4|inst33|inst2|LPM_ADD_SUB_component|stratix_adder|add_sub_cell[2]~COUT $end
$var wire 1 y inst4|inst33|inst2|LPM_ADD_SUB_component|stratix_adder|add_sub_cell[2]~COUTCOUT1_12 $end
$var wire 1 z inst4|inst33|inst2|LPM_ADD_SUB_component|stratix_adder|add_sub_cell[3]~COUT $end
$var wire 1 { inst4|inst33|inst2|LPM_ADD_SUB_component|stratix_adder|add_sub_cell[3]~COUTCOUT1_14 $end
$var wire 1 | inst4|inst33|inst2|LPM_ADD_SUB_component|stratix_adder|add_sub_cell[4]~COUT $end
$var wire 1 } inst4|inst33|inst2|LPM_ADD_SUB_component|stratix_adder|add_sub_cell[5]~COUT $end
$var wire 1 ~ inst4|inst33|inst2|LPM_ADD_SUB_component|stratix_adder|add_sub_cell[5]~COUTCOUT1_16 $end
$var wire 1 !! inst4|inst33|inst2|LPM_ADD_SUB_component|stratix_adder|add_sub_cell[6]~COUT $end
$var wire 1 "! inst4|inst33|inst2|LPM_ADD_SUB_component|stratix_adder|add_sub_cell[6]~COUTCOUT1_18 $end
$var wire 1 #! inst4|inst6|inst|inst|inst~regout $end
$var wire 1 $! inst4|inst6|inst|inst|inst1~regout $end
$var wire 1 %! inst4|inst6|inst|inst|inst2~regout $end
$var wire 1 &! inst4|inst6|inst|inst|inst3~regout $end
$var wire 1 '! inst4|inst6|inst|inst|inst4~regout $end
$var wire 1 (! inst4|inst6|inst|inst|inst5~regout $end
$var wire 1 )! inst4|inst6|inst|inst|inst6~regout $end
$var wire 1 *! inst4|inst6|inst|inst|inst7~regout $end
$var wire 1 +! inst10|inst|inst|inst1|inst5~0_combout $end
$var wire 1 ,! inst10|inst|inst|inst2|inst5~0_combout $end
$var wire 1 -! inst10|inst|inst|inst3|inst5~0_combout $end
$var wire 1 .! inst19|LPM_MUX_component|auto_generated|dffe31~regout $end
$var wire 1 /! inst5|LPM_MUX_component|auto_generated|result_node[0]~0 $end
$var wire 1 0! inst19|LPM_MUX_component|auto_generated|result_node[7]~0 $end
$var wire 1 1! inst10|inst|inst9|inst2|inst|1~combout $end
$var wire 1 2! inst10|inst|inst10|inst2|inst|1~combout $end
$var wire 1 3! inst19|LPM_MUX_component|auto_generated|dffe27~regout $end
$var wire 1 4! inst3|inst5|LPM_MUX_component|auto_generated|result_node[2]~0_combout $end
$var wire 1 5! inst19|LPM_MUX_component|auto_generated|dffe26~0_combout $end
$var wire 1 6! inst19|LPM_MUX_component|auto_generated|dffe26~regout $end
$var wire 1 7! inst19|LPM_MUX_component|auto_generated|result_node[6]~1_combout $end
$var wire 1 8! inst3|inst5|LPM_MUX_component|auto_generated|result_node[1]~1_combout $end
$var wire 1 9! inst19|LPM_MUX_component|auto_generated|dffe22~0_combout $end
$var wire 1 :! inst19|LPM_MUX_component|auto_generated|dffe22~regout $end
$var wire 1 ;! inst10|inst|inst9|inst1|inst|1~combout $end
$var wire 1 <! inst10|inst|inst10|inst1|inst|1~combout $end
$var wire 1 =! inst19|LPM_MUX_component|auto_generated|dffe23~regout $end
$var wire 1 >! inst19|LPM_MUX_component|auto_generated|result_node[5]~2_combout $end
$var wire 1 ?! inst19|LPM_MUX_component|auto_generated|dffe19~regout $end
$var wire 1 @! inst19|LPM_MUX_component|auto_generated|dffe18~0_combout $end
$var wire 1 A! inst19|LPM_MUX_component|auto_generated|dffe18~1_combout $end
$var wire 1 B! inst19|LPM_MUX_component|auto_generated|dffe18~regout $end
$var wire 1 C! inst19|LPM_MUX_component|auto_generated|result_node[4]~3_combout $end
$var wire 1 D! inst19|LPM_MUX_component|auto_generated|dffe15~regout $end
$var wire 1 E! inst19|LPM_MUX_component|auto_generated|dffe14~1_combout $end
$var wire 1 F! inst19|LPM_MUX_component|auto_generated|_~0_combout $end
$var wire 1 G! inst19|LPM_MUX_component|auto_generated|dffe14~0_combout $end
$var wire 1 H! inst19|LPM_MUX_component|auto_generated|dffe14~regout $end
$var wire 1 I! inst19|LPM_MUX_component|auto_generated|result_node[3]~4_combout $end
$var wire 1 J! inst19|LPM_MUX_component|auto_generated|dffe10~0_combout $end
$var wire 1 K! inst19|LPM_MUX_component|auto_generated|dffe10~1_combout $end
$var wire 1 L! inst19|LPM_MUX_component|auto_generated|dffe10~regout $end
$var wire 1 M! inst19|LPM_MUX_component|auto_generated|dffe11~regout $end
$var wire 1 N! inst19|LPM_MUX_component|auto_generated|result_node[2]~5_combout $end
$var wire 1 O! inst19|LPM_MUX_component|auto_generated|dffe6~0_combout $end
$var wire 1 P! inst19|LPM_MUX_component|auto_generated|_~1_combout $end
$var wire 1 Q! inst19|LPM_MUX_component|auto_generated|dffe6~1_combout $end
$var wire 1 R! inst19|LPM_MUX_component|auto_generated|dffe6~regout $end
$var wire 1 S! inst10|inst|inst|inst|inst5~combout $end
$var wire 1 T! inst19|LPM_MUX_component|auto_generated|dffe7~regout $end
$var wire 1 U! inst19|LPM_MUX_component|auto_generated|result_node[1]~6_combout $end
$var wire 1 V! inst19|LPM_MUX_component|auto_generated|dffe2~regout $end
$var wire 1 W! inst19|LPM_MUX_component|auto_generated|dffe3~regout $end
$var wire 1 X! inst19|LPM_MUX_component|auto_generated|result_node[0]~7_combout $end
$var wire 1 Y! OPCODE~combout [3] $end
$var wire 1 Z! OPCODE~combout [2] $end
$var wire 1 [! OPCODE~combout [1] $end
$var wire 1 \! OPCODE~combout [0] $end
$var wire 1 ]! B~combout [7] $end
$var wire 1 ^! B~combout [6] $end
$var wire 1 _! B~combout [5] $end
$var wire 1 `! B~combout [4] $end
$var wire 1 a! B~combout [3] $end
$var wire 1 b! B~combout [2] $end
$var wire 1 c! B~combout [1] $end
$var wire 1 d! B~combout [0] $end
$var wire 1 e! A~combout [7] $end
$var wire 1 f! A~combout [6] $end
$var wire 1 g! A~combout [5] $end
$var wire 1 h! A~combout [4] $end
$var wire 1 i! A~combout [3] $end
$var wire 1 j! A~combout [2] $end
$var wire 1 k! A~combout [1] $end
$var wire 1 l! A~combout [0] $end
$var wire 1 m! inst6|LPM_MUX_component|auto_generated|external_latency_ffsa [0] $end
$var wire 1 n! inst4|inst|LPM_COUNTER_component|auto_generated|safe_q [3] $end
$var wire 1 o! inst4|inst|LPM_COUNTER_component|auto_generated|safe_q [2] $end
$var wire 1 p! inst4|inst|LPM_COUNTER_component|auto_generated|safe_q [1] $end
$var wire 1 q! inst4|inst|LPM_COUNTER_component|auto_generated|safe_q [0] $end
$var wire 1 r! inst4|inst33|inst2|LPM_ADD_SUB_component|stratix_adder|result [7] $end
$var wire 1 s! inst4|inst33|inst2|LPM_ADD_SUB_component|stratix_adder|result [6] $end
$var wire 1 t! inst4|inst33|inst2|LPM_ADD_SUB_component|stratix_adder|result [5] $end
$var wire 1 u! inst4|inst33|inst2|LPM_ADD_SUB_component|stratix_adder|result [4] $end
$var wire 1 v! inst4|inst33|inst2|LPM_ADD_SUB_component|stratix_adder|result [3] $end
$var wire 1 w! inst4|inst33|inst2|LPM_ADD_SUB_component|stratix_adder|result [2] $end
$var wire 1 x! inst4|inst33|inst2|LPM_ADD_SUB_component|stratix_adder|result [1] $end
$var wire 1 y! inst4|inst33|inst2|LPM_ADD_SUB_component|stratix_adder|result [0] $end
$var wire 1 z! inst7|LPM_DECODE_component|auto_generated|w_anode89w [3] $end
$var wire 1 {! inst7|LPM_DECODE_component|auto_generated|w_anode89w [2] $end
$var wire 1 |! inst7|LPM_DECODE_component|auto_generated|w_anode89w [1] $end
$var wire 1 }! inst7|LPM_DECODE_component|auto_generated|w_anode89w [0] $end
$var wire 1 ~! inst7|LPM_DECODE_component|auto_generated|w_anode79w [3] $end
$var wire 1 !" inst7|LPM_DECODE_component|auto_generated|w_anode79w [2] $end
$var wire 1 "" inst7|LPM_DECODE_component|auto_generated|w_anode79w [1] $end
$var wire 1 #" inst7|LPM_DECODE_component|auto_generated|w_anode79w [0] $end
$var wire 1 $" inst7|LPM_DECODE_component|auto_generated|w_anode69w [3] $end
$var wire 1 %" inst7|LPM_DECODE_component|auto_generated|w_anode69w [2] $end
$var wire 1 &" inst7|LPM_DECODE_component|auto_generated|w_anode69w [1] $end
$var wire 1 '" inst7|LPM_DECODE_component|auto_generated|w_anode69w [0] $end
$var wire 1 (" inst7|LPM_DECODE_component|auto_generated|w_anode59w [3] $end
$var wire 1 )" inst7|LPM_DECODE_component|auto_generated|w_anode59w [2] $end
$var wire 1 *" inst7|LPM_DECODE_component|auto_generated|w_anode59w [1] $end
$var wire 1 +" inst7|LPM_DECODE_component|auto_generated|w_anode59w [0] $end
$var wire 1 ," inst7|LPM_DECODE_component|auto_generated|w_anode49w [3] $end
$var wire 1 -" inst7|LPM_DECODE_component|auto_generated|w_anode49w [2] $end
$var wire 1 ." inst7|LPM_DECODE_component|auto_generated|w_anode49w [1] $end
$var wire 1 /" inst7|LPM_DECODE_component|auto_generated|w_anode49w [0] $end
$var wire 1 0" inst7|LPM_DECODE_component|auto_generated|w_anode3w [1] $end
$var wire 1 1" inst7|LPM_DECODE_component|auto_generated|w_anode3w [0] $end
$var wire 1 2" inst7|LPM_DECODE_component|auto_generated|w_anode39w [3] $end
$var wire 1 3" inst7|LPM_DECODE_component|auto_generated|w_anode39w [2] $end
$var wire 1 4" inst7|LPM_DECODE_component|auto_generated|w_anode39w [1] $end
$var wire 1 5" inst7|LPM_DECODE_component|auto_generated|w_anode39w [0] $end
$var wire 1 6" inst7|LPM_DECODE_component|auto_generated|w_anode29w [3] $end
$var wire 1 7" inst7|LPM_DECODE_component|auto_generated|w_anode29w [2] $end
$var wire 1 8" inst7|LPM_DECODE_component|auto_generated|w_anode29w [1] $end
$var wire 1 9" inst7|LPM_DECODE_component|auto_generated|w_anode29w [0] $end
$var wire 1 :" inst7|LPM_DECODE_component|auto_generated|w_anode179w [3] $end
$var wire 1 ;" inst7|LPM_DECODE_component|auto_generated|w_anode179w [2] $end
$var wire 1 <" inst7|LPM_DECODE_component|auto_generated|w_anode179w [1] $end
$var wire 1 =" inst7|LPM_DECODE_component|auto_generated|w_anode179w [0] $end
$var wire 1 >" inst7|LPM_DECODE_component|auto_generated|w_anode169w [3] $end
$var wire 1 ?" inst7|LPM_DECODE_component|auto_generated|w_anode169w [2] $end
$var wire 1 @" inst7|LPM_DECODE_component|auto_generated|w_anode169w [1] $end
$var wire 1 A" inst7|LPM_DECODE_component|auto_generated|w_anode169w [0] $end
$var wire 1 B" inst7|LPM_DECODE_component|auto_generated|w_anode159w [3] $end
$var wire 1 C" inst7|LPM_DECODE_component|auto_generated|w_anode159w [2] $end
$var wire 1 D" inst7|LPM_DECODE_component|auto_generated|w_anode159w [1] $end
$var wire 1 E" inst7|LPM_DECODE_component|auto_generated|w_anode159w [0] $end
$var wire 1 F" inst7|LPM_DECODE_component|auto_generated|w_anode149w [3] $end
$var wire 1 G" inst7|LPM_DECODE_component|auto_generated|w_anode149w [2] $end
$var wire 1 H" inst7|LPM_DECODE_component|auto_generated|w_anode149w [1] $end
$var wire 1 I" inst7|LPM_DECODE_component|auto_generated|w_anode149w [0] $end
$var wire 1 J" inst7|LPM_DECODE_component|auto_generated|w_anode139w [3] $end
$var wire 1 K" inst7|LPM_DECODE_component|auto_generated|w_anode139w [2] $end
$var wire 1 L" inst7|LPM_DECODE_component|auto_generated|w_anode139w [1] $end
$var wire 1 M" inst7|LPM_DECODE_component|auto_generated|w_anode139w [0] $end
$var wire 1 N" inst7|LPM_DECODE_component|auto_generated|w_anode12w [3] $end
$var wire 1 O" inst7|LPM_DECODE_component|auto_generated|w_anode12w [2] $end
$var wire 1 P" inst7|LPM_DECODE_component|auto_generated|w_anode12w [1] $end
$var wire 1 Q" inst7|LPM_DECODE_component|auto_generated|w_anode12w [0] $end
$var wire 1 R" inst7|LPM_DECODE_component|auto_generated|w_anode129w [3] $end
$var wire 1 S" inst7|LPM_DECODE_component|auto_generated|w_anode129w [2] $end
$var wire 1 T" inst7|LPM_DECODE_component|auto_generated|w_anode129w [1] $end
$var wire 1 U" inst7|LPM_DECODE_component|auto_generated|w_anode129w [0] $end
$var wire 1 V" inst7|LPM_DECODE_component|auto_generated|w_anode119w [3] $end
$var wire 1 W" inst7|LPM_DECODE_component|auto_generated|w_anode119w [2] $end
$var wire 1 X" inst7|LPM_DECODE_component|auto_generated|w_anode119w [1] $end
$var wire 1 Y" inst7|LPM_DECODE_component|auto_generated|w_anode119w [0] $end
$var wire 1 Z" inst7|LPM_DECODE_component|auto_generated|w_anode108w [3] $end
$var wire 1 [" inst7|LPM_DECODE_component|auto_generated|w_anode108w [2] $end
$var wire 1 \" inst7|LPM_DECODE_component|auto_generated|w_anode108w [1] $end
$var wire 1 ]" inst7|LPM_DECODE_component|auto_generated|w_anode108w [0] $end
$var wire 1 ^" inst7|LPM_DECODE_component|auto_generated|w_anode101w [1] $end
$var wire 1 _" inst7|LPM_DECODE_component|auto_generated|w_anode101w [0] $end
$var wire 1 `" inst19|LPM_MUX_component|auto_generated|dffe1a [3] $end
$var wire 1 a" inst19|LPM_MUX_component|auto_generated|dffe1a [2] $end
$var wire 1 b" inst19|LPM_MUX_component|auto_generated|dffe1a [1] $end
$var wire 1 c" inst19|LPM_MUX_component|auto_generated|dffe1a [0] $end
$upscope $end
$upscope $end
$enddefinitions $end
#0
$dumpvars
b11110101 !
b11110101 "
0#
1$
b0 %
15
04
03
02
01
00
0/
0.
0-
0,
0+
0*
0)
0(
0'
0&
0=
0<
0;
0:
09
08
07
06
0>
0?
x@
0A
1B
xC
1D
1E
1F
0G
1H
0I
0J
1K
1L
0M
0N
1O
0P
0Q
0R
0S
0T
0U
0V
0W
0X
0Y
0Z
0[
1\
1]
1^
0_
0`
1a
0b
1c
1d
0e
0f
0g
1h
1i
0j
0k
0l
0m
0n
0o
0p
0q
0r
0s
0t
0u
1v
1w
0x
0y
1z
1{
0|
1}
1~
0!!
0"!
0#!
0$!
0%!
0&!
0'!
0(!
0)!
0*!
1+!
1,!
1-!
0.!
0/!
00!
01!
12!
03!
14!
15!
06!
07!
18!
19!
0:!
0;!
1<!
0=!
0>!
0?!
1@!
1A!
0B!
0C!
0D!
0E!
1F!
0G!
0H!
0I!
1J!
1K!
0L!
0M!
0N!
0O!
1P!
0Q!
0R!
1S!
0T!
0U!
0V!
0W!
0X!
0\!
0[!
0Z!
0Y!
1d!
0c!
1b!
0a!
1`!
1_!
1^!
1]!
1l!
0k!
1j!
0i!
1h!
1g!
1f!
1e!
0m!
0q!
0p!
0o!
0n!
1y!
1x!
0w!
1v!
0u!
0t!
0s!
0r!
z}!
z|!
z{!
0z!
z#"
z""
z!"
0~!
z'"
z&"
z%"
0$"
z+"
z*"
z)"
0("
z/"
z."
z-"
0,"
z1"
10"
z5"
z4"
z3"
02"
z9"
z8"
z7"
06"
z="
z<"
z;"
0:"
zA"
z@"
z?"
0>"
zE"
zD"
zC"
0B"
zI"
zH"
zG"
0F"
zM"
zL"
zK"
0J"
zQ"
zP"
zO"
1N"
zU"
zT"
zS"
0R"
zY"
zX"
zW"
0V"
z]"
z\"
z["
0Z"
z_"
0^"
zc"
zb"
0a"
0`"
$end
#15000
1#
1G
0@
1V!
1L!
1B!
1:!
16!
1*!
1q
1o
1m
1l
1k
1e
1m!
1X!
1N!
1C!
1>!
17!
1s
10!
1>
1=
1;
19
18
17
16
#30000
0#
0G
1@
#40000
b1 %
1\!
0@
0K!
0A!
0@!
0N"
16"
1P
05
14
#45000
1#
1G
1@
1W!
1M!
1?!
1=!
13!
1.!
#60000
0#
0G
0@
#75000
1#
1G
1@
#80000
b11 %
b10 %
0\!
1[!
0@
1K!
0J!
09!
05!
06"
12"
0\
0P
0K!
04
13
#90000
0#
0G
1@
#105000
1#
1G
0@
0W!
0V!
0M!
0L!
0B!
0?!
0=!
0:!
06!
03!
0.!
0e
1[
0X!
0N!
0C!
0>!
07!
00!
0=
0;
09
08
07
06
#120000
b11 %
0#
1\!
0G
1@
1O!
1J!
1G!
1@!
19!
15!
02"
1,"
1\
03
12
#135000
1#
1G
0@
1R!
1H!
1:!
16!
1e
0[
1U!
1I!
1>!
17!
10!
1<
1:
18
17
16
#150000
0#
0G
1@
#160000
b111 %
b101 %
b100 %
0\!
0[!
1Z!
0@
0O!
1K!
0G!
1A!
0,"
1("
02
11
#165000
1#
1G
1@
1V!
0R!
1L!
0H!
1B!
1a"
0U!
0I!
0>!
07!
00!
0<
0:
08
07
06
#180000
0#
0G
0@
#195000
1#
1G
1@
#200000
b101 %
1\!
0@
0K!
0A!
0@!
0("
1P
1$"
01
#210000
0#
0G
1@
#225000
1#
1G
0@
1W!
1M!
1?!
1=!
13!
1.!
0m!
1q!
1X!
1N!
1C!
1>!
17!
10!
1j
1J
1I
0>
1=
1;
19
18
17
16
#240000
0#
0G
1@
#255000
1#
1G
0@
1)!
1'!
1r
0q
1p
0o
1n
1p!
0q!
1u
1t
0y!
1y
1x
1r!
1s!
0~
1t!
1u!
0v!
0x!
0L
0K
0J
0I
1x!
1v!
1"!
1L
1K
#270000
0#
0G
1@
#285000
1#
1G
0@
0W!
1T!
0M!
1D!
0*!
1&!
1%!
1$!
1#!
0r
1q
0p
1o
1q!
0X!
1U!
0N!
1I!
0{
0z
0y
0x
1w!
0w
0v
0x!
0u
1J
1I
1|
0u!
0v!
1y
1x
0w!
1w
0L
0K
0=
1<
0;
1:
0r!
0s!
0t!
1v!
0y
#300000
0#
0G
1@
#315000
1#
1G
0@
1W!
0T!
1M!
0.!
0)!
0&!
0%!
0$!
0#!
1r
0q
1p
0k
1o!
0p!
0q!
1X!
0U!
1N!
00!
1y!
1{
1z
0v!
1y
1v
1N
1M
1L
1K
0J
0I
0|
1u!
1v!
0N
0M
1=
0<
1;
06
1r!
1s!
1t!
#330000
0#
0G
1@
#345000
1#
1G
0@
0W!
1T!
03!
1*!
1&!
1%!
1$!
1#!
0r
1q
0l
1q!
0X!
1U!
07!
0{
0z
0y
0x
1w!
0v
0t
1J
1I
1|
0u!
0v!
1x
0w!
1v
1x!
0=
1<
07
0r!
0s!
0t!
1v!
0x
1w!
0v!
#360000
0#
0G
1@
#375000
1#
1G
0@
1W!
0=!
1.!
1)!
1(!
0'!
0&!
0%!
0$!
0#!
1r
0m
1k
1p!
0q!
1X!
0>!
10!
1u
1t
0y!
1{
1z
0s
0L
0K
0J
0I
0w
0v
0x!
0|
1u!
1N
1M
1L
1K
1=
08
16
1y
1x
0w!
1r!
1s!
1t!
0N
0M
1v!
#390000
0#
0G
1@
#405000
1#
1G
0@
0?!
13!
0(!
0n
1l
1q!
0C!
17!
1w
1v
1x!
1J
1I
0y
0x
1w!
0L
0K
09
17
0v!
1N
1M
#420000
0#
0G
1@
#435000
1#
1G
0@
0D!
1=!
0)!
0o
1m
1n!
0o!
0p!
0q!
0I!
1>!
0u
1y!
0N
0M
1L
1K
0J
0I
0x!
0:
18
#450000
0#
0G
1@
#465000
1#
1G
0@
0M!
1?!
0*!
0p
1n
1q!
0N!
1C!
0O
1J
1I
0;
19
#480000
0#
0G
1@
#495000
1#
1G
0@
0T!
1D!
0.!
0q
1o
0k
1m!
0n!
0q!
0U!
1I!
00!
1s
0j
1O
0J
0I
1>
0<
1:
06
#510000
0#
0G
1@
#525000
1#
1G
0@
0W!
1M!
03!
1*!
0r
1q
0n
1k
0m!
1q!
0X!
1N!
07!
0r!
0"!
0s!
1~
0t!
0u!
1v!
0w!
0v
0t
1j
1J
1I
0>
1w!
1v
1x!
0=
1;
07
0w!
#540000
b111 %
b110 %
0#
0\!
1[!
0G
1@
1K!
0J!
09!
05!
1~!
0\
0P
0$"
0K!
1/
#555000
1#
1G
0@
0V!
0M!
0L!
0D!
0B!
0?!
0=!
0:!
06!
1)!
1'!
1r
0q
1p
0o
1n
0e
1[
1m!
0N!
0I!
0C!
0>!
1u
1t
0y!
1y
1x
1r!
1s!
0~
1t!
1u!
0v!
0x!
1/!
1>
1x!
1v!
1"!
0;
0:
09
08
1?
#570000
0#
0G
1@
#580000
b111 %
1\!
0@
1O!
1J!
1G!
1@!
19!
15!
0~!
1z!
1\
0/
1.
#585000
1#
1G
1@
1R!
1H!
1:!
16!
0*!
1&!
1%!
1$!
1#!
0r
1q
0p
1o
1e
0[
0{
0z
0y
0x
1w!
0w
0v
0x!
0u
0/!
1|
0u!
0v!
1y
1x
0w!
1w
0?
0r!
0s!
0t!
1v!
0y
#600000
0#
0G
0@
#615000
1#
1G
1@
0)!
0&!
0%!
0$!
0#!
1r
0q
1p
0k
1y!
1{
1z
0v!
1y
1v
0|
1u!
1v!
1r!
1s!
1t!
#630000
b11 %
b1 %
b0 %
0#
0\!
0[!
0Z!
0G
0@
0O!
1K!
0G!
1A!
1N"
0z!
15
0.
#645000
1#
1G
1@
1V!
0R!
1L!
0H!
1B!
1*!
1&!
1%!
1$!
1#!
0r
1q
0l
0a"
1X!
1N!
1C!
0{
0z
0y
0x
1w!
0v
0t
1>!
17!
10!
1|
0u!
0v!
1x
0w!
1v
1x!
1=
1;
19
18
17
16
0r!
0s!
0t!
1v!
0x
1w!
0v!
#660000
0#
0G
0@
#675000
1#
1G
1@
1)!
1(!
0'!
0&!
0%!
0$!
0#!
1r
0m
1k
1u
1t
0y!
1{
1z
0s
0w
0v
0x!
0|
1u!
1y
1x
0w!
1r!
1s!
1t!
1v!
#690000
0#
0G
0@
#705000
1#
1G
1@
0(!
0n
1l
1w
1v
1x!
0y
0x
1w!
0v!
#720000
0#
0G
0@
#735000
1#
1G
1@
0)!
0o
1m
0u
1y!
0x!
#750000
0#
0G
0@
#765000
1#
1G
1@
0*!
0p
1n
#780000
0#
0G
0@
#795000
1#
1G
1@
0q
1o
0k
1s
#810000
0#
0G
0@
#825000
1#
1G
1@
1*!
1(!
1&!
1%!
1$!
1#!
0r
1p
0l
0w
0v
1x!
0{
0z
0w!
0t
0s
1w!
1|
0u!
0x!
0r!
0s!
0t!
#840000
0#
0G
0@
#855000
1#
1G
1@
0*!
1)!
0(!
1'!
1q
0m
1k
1t
0y!
1w
1v
1x!
1y
1x
0w!
1s
0v
0x!
0y
0x
1w!
1v!
1x
0w!
0v!
1v!
#870000
0#
0G
0@
#885000
1#
1G
1@
0)!
0&!
0%!
0$!
0#!
1r
0n
1l
0k
1y!
1{
1z
0v!
1y
1v
0s
0|
1u!
1v!
1r!
1s!
1t!
#900000
0#
0G
0@
#915000
1#
1G
1@
1(!
0'!
0o
1m
0l
0v
1x!
0y
0x
1w!
1x
0v!
#930000
0#
0G
0@
#945000
1#
1G
1@
1)!
0(!
0p
1n
0m
1u
0y!
1v
0x!
1x!
0x
#960000
0#
0G
0@
#975000
1#
1G
1@
1*!
0)!
0q
1o
0n
0u
1y!
1s
0x!
#990000
0#
0G
0@
